4 Explorative Data Analysis | Sleep Revolution: Sleep Apnea Cost
…
4.1.7 Calculator datas

## # A tibble: 27 × 8
##    cause_id type       Conditon                               PAF prevalence_base_italy annual_direct_healthcare_cost annual_direct_nonhealthcare_co… annual_producti…
##       <dbl> <chr>      <chr>                                <dbl>                 <dbl>                         <dbl>                           <dbl>            <dbl>
##  1      294 mortality  All-cause mortality Severe           0.075                 0.003                            NA                              NA               NA
##  2     1023 mortality  Cardiovascular mortality Severe      0.227                NA                                NA                              NA               NA
##  3     1029 prevalence Cancer Overall                       0.097                 0.042                          5718                            4581              119
##  4       NA prevalence Diabetic retinopathy Overall*        0.207                 0.026                           307                             242              579
##  5      998 prevalence Diabetic kidney disease Overall*     0.135                 0.015                           797                              NA               NA
##  6      976 prevalence Type 2 diabetes                      0.145                 0.068                          3866                              NA             4352
##  7      619 prevalence Metabolic syndrome (mild)            0.164                 0.33                           1900                              NA               90
##  8       NA prevalence Metabolic syndrome (moderate-severe) 0.232                NA                                NA                              NA               NA
##  9       NA prevalence Erectile dysfunction                 0.228                 0.1                             407                              NA               NA
## 10       NA prevalence Female sexual dysfunction            0.153                 0.29                            761                              NA               NA
## # … with 17 more rows
…
